module github.com/deepch/RTSPtoWeb

go 1.19

require (
	github.com/deepch/vdk v0.0.20
	github.com/gin-gonic/autotls v0.0.5
	github.com/gin-gonic/gin v1.9.0
	github.com/gobwas/ws v1.1.0
	github.com/hashicorp/go-version v1.6.0
	github.com/imdario/mergo v0.3.14
	github.com/liip/sheriff v0.11.1
	github.com/sirupsen/logrus v1.9.0
)

require (
	github.com/bytedance/sonic v1.8.3 // indirect
	github.com/chenzhuoyu/base64x v0.0.0-20221115062448-fe3a3abad311 // indirect
	github.com/gin-contrib/sse v0.1.0 // indirect
	github.com/go-playground/locales v0.14.1 // indirect
	github.com/go-playground/universal-translator v0.18.1 // indirect
	github.com/go-playground/validator/v10 v10.11.2 // indirect
	github.com/gobwas/httphead v0.1.0 // indirect
	github.com/gobwas/pool v0.2.1 // indirect
	github.com/goccy/go-json v0.10.0 // indirect
	github.com/google/uuid v1.3.0 // indirect
	github.com/json-iterator/go v1.1.12 // indirect
	github.com/klauspost/cpuid/v2 v2.2.4 // indirect
	github.com/leodido/go-urn v1.2.2 // indirect
	github.com/mattn/go-isatty v0.0.17 // indirect
	github.com/modern-go/concurrent v0.0.0-20180306012644-bacd9c7ef1dd // indirect
	github.com/modern-go/reflect2 v1.0.2 // indirect
	github.com/pelletier/go-toml/v2 v2.0.7 // indirect
	github.com/pion/datachannel v1.5.5 // indirect
	github.com/pion/dtls/v2 v2.2.6 // indirect
	github.com/pion/ice/v2 v2.3.1 // indirect
	github.com/pion/interceptor v0.1.12 // indirect
	github.com/pion/logging v0.2.2 // indirect
	github.com/pion/mdns v0.0.7 // indirect
	github.com/pion/randutil v0.1.0 // indirect
	github.com/pion/rtcp v1.2.10 // indirect
	github.com/pion/rtp v1.7.13 // indirect
	github.com/pion/sctp v1.8.6 // indirect
	github.com/pion/sdp/v3 v3.0.6 // indirect
	github.com/pion/srtp/v2 v2.0.12 // indirect
	github.com/pion/stun v0.4.0 // indirect
	github.com/pion/transport/v2 v2.0.2 // indirect
	github.com/pion/turn/v2 v2.1.0 // indirect
	github.com/pion/udp/v2 v2.0.1 // indirect
	github.com/pion/webrtc/v3 v3.1.58 // indirect
	github.com/twitchyliquid64/golang-asm v0.15.1 // indirect
	github.com/ugorji/go/codec v1.2.11 // indirect
	golang.org/x/arch v0.3.0 // indirect
	golang.org/x/crypto v0.7.0 // indirect
	golang.org/x/net v0.8.0 // indirect
	golang.org/x/sync v0.1.0 // indirect
	golang.org/x/sys v0.6.0 // indirect
	golang.org/x/text v0.8.0 // indirect
	google.golang.org/protobuf v1.29.0 // indirect
	gopkg.in/yaml.v3 v3.0.1 // indirect
)
